..................
----------------------------------------------------------------------
Ran 18 tests in 0.044s

OK
Name             Stmts   Miss Branch BrPart  Cover   Missing
------------------------------------------------------------
Collatz.py          65      0     22      0   100%
TestCollatz.py      78      0      0      0   100%
------------------------------------------------------------
TOTAL              143      0     22      0   100%
